<?xml version="1.0" encoding="utf-8"?>
<!-- Generator: Adobe Illustrator 23.1.1, SVG Export Plug-In . SVG Version: 6.00 Build 0)  -->
<svg version="1.1" id="Layer_1" xmlns="http://www.w3.org/2000/svg" xmlns:xlink="http://www.w3.org/1999/xlink" x="0px" y="0px"
	 viewBox="0 0 80 80" enable-background="new 0 0 80 80" xml:space="preserve">
<path fill="#FC6D26" d="M36.7,36.4C36.7,36.3,36.7,36.3,36.7,36.4c-0.5-0.1-0.9-0.2-1.4-0.3c-0.3,0-0.4-0.2-0.5-0.4
	c-0.1-0.3-0.2-0.7-0.4-1c-0.1-0.2-0.1-0.5,0.1-0.7c0.3-0.3,0.5-0.7,0.8-1c0,0,0,0,0,0c-0.4-0.6-1-1.1-1.5-1.6c0,0,0,0,0,0
	c0,0,0,0,0,0c-0.3,0.3-0.7,0.5-1.1,0.8c0,0-0.1,0.1-0.1,0.1c-0.2,0.1-0.3,0.1-0.5,0c-0.3-0.1-0.6-0.3-0.9-0.4
	c-0.3-0.1-0.4-0.3-0.4-0.6c0-0.4-0.1-0.9-0.1-1.3v0l0,0c0,0,0,0,0,0c-0.7-0.1-1.5-0.1-2.2,0c0,0.1,0,0.3-0.1,0.4
	c0,0.3-0.1,0.6-0.1,0.9c0,0.2-0.1,0.3-0.2,0.4l-0.1,0.1c0,0-0.1,0-0.1,0c-0.3,0.1-0.6,0.2-0.9,0.4c0,0-0.1,0-0.1,0
	c-0.2,0-0.4,0-0.5-0.1c-0.3-0.3-0.7-0.5-1-0.8c0,0,0,0,0,0l0,0c-0.6,0.4-1.1,1-1.6,1.5c0.1,0.2,0.3,0.4,0.4,0.5
	c0.1,0.2,0.3,0.4,0.4,0.5c0.1,0.1,0.1,0.2,0.1,0.3l-0.1,0.4c-0.2,0.3-0.3,0.7-0.4,1c0,0.1-0.1,0.2-0.2,0.3h0c0,0-0.1,0-0.1,0.1
	c-0.1,0-0.1,0-0.2,0c-0.4,0-0.9,0.1-1.3,0.1c0,0,0,0,0,0c0,0,0,0,0,0c-0.1,0.8-0.1,1.5,0,2.2c0.2,0,0.4,0.1,0.7,0.1
	c0.2,0,0.4,0.1,0.7,0.1c0.3,0,0.5,0.2,0.5,0.5c0.1,0.3,0.2,0.6,0.4,1c0.1,0.2,0.1,0.5-0.1,0.7c-0.3,0.3-0.5,0.7-0.8,1
	c0,0,0,0.1,0,0.1c0.1,0.1,0.2,0.3,0.4,0.4c0.3,0.4,0.7,0.7,1,1c0,0,0,0,0,0c0.1,0,0.1,0.1,0.1,0.1c0,0,0,0,0,0
	c0.1-0.1,0.2-0.1,0.3-0.2c0.3-0.2,0.5-0.4,0.8-0.6c0.1,0,0.1-0.1,0.2-0.1c0.2-0.1,0.3-0.1,0.5,0c0.3,0.2,0.7,0.3,1,0.4
	c0.2,0.1,0.4,0.3,0.4,0.5c0.1,0.4,0.1,0.9,0.1,1.3c0,0,0,0.1,0,0.1c0.6,0.1,1.1,0.1,1.7,0.1c0,0,0.1,0,0.1,0s0.1,0,0.1,0
	c0.1,0,0.2,0,0.2,0c0,0,0,0,0,0h0c0-0.2,0.1-0.3,0.1-0.5c0-0.3,0.1-0.6,0.1-0.8c0-0.2,0.1-0.3,0.3-0.4c0,0,0.1,0,0.1-0.1
	c0.3-0.1,0.6-0.2,0.9-0.3c0.3-0.1,0.5-0.1,0.8,0.1c0.3,0.3,0.7,0.5,1,0.8c0,0,0,0,0.1,0c0.2-0.2,0.4-0.3,0.6-0.5c0,0,0.1,0,0.1-0.1
	c0.2-0.2,0.3-0.3,0.5-0.5c0,0,0.1-0.1,0.1-0.1s0-0.1,0.1-0.1c0.1-0.1,0.1-0.1,0.2-0.2c0,0-0.1-0.1-0.1-0.1c-0.2-0.3-0.5-0.7-0.7-1
	c-0.2-0.2-0.2-0.5-0.1-0.7c0.1-0.3,0.3-0.6,0.4-0.9c0.1-0.2,0.2-0.4,0.4-0.4c0,0,0.1,0,0.1,0c0.4,0,0.9-0.1,1.3-0.1c0,0,0,0,0.1,0
	c0,0,0,0,0,0c0,0,0,0,0-0.1c0-0.4,0.1-0.8,0.1-1.1C36.7,37,36.7,36.7,36.7,36.4"/>
<path fill="#251B3F" d="M29.1,45.6c-0.4,0-0.9,0-1.2-0.1c-0.4-0.1-0.7-0.4-0.8-0.8l0-0.4c0-0.3-0.1-0.6-0.1-0.9
	c-0.3-0.1-0.6-0.2-0.9-0.4l-1,0.8c-0.2,0.2-0.5,0.2-0.8,0.1C24.1,44,24,43.9,24,43.8c0,0,0,0-0.1-0.1c-0.4-0.3-0.8-0.7-1.1-1.1
	c-0.1-0.1-0.2-0.2-0.3-0.3l-0.1-0.1c-0.3-0.3-0.3-0.8,0-1.1c0.2-0.3,0.4-0.5,0.6-0.8l0.2-0.2c-0.1-0.3-0.2-0.6-0.3-0.9
	c-0.1,0-0.3,0-0.4-0.1l-0.9-0.1c-0.4-0.1-0.7-0.3-0.7-0.7c-0.1-0.8-0.1-1.6,0-2.4c0-0.3,0.3-0.6,0.7-0.7c0,0,0.1,0,0.1,0
	c0.3,0,0.6-0.1,0.9-0.1l0.3,0c0.1-0.3,0.2-0.6,0.4-0.9v0c-0.1-0.1-0.1-0.2-0.2-0.3l-0.5-0.7c-0.2-0.3-0.2-0.7,0-1
	c0.5-0.6,1.1-1.2,1.7-1.6c0,0,0,0,0.1-0.1c0,0,0,0,0,0c0.3-0.2,0.7-0.2,1,0l0.4,0.3c0.2,0.2,0.4,0.3,0.7,0.5
	c0.3-0.1,0.5-0.2,0.9-0.3c0-0.2,0.1-0.4,0.1-0.6l0.1-0.7c0.1-0.4,0.3-0.7,0.7-0.7c0.8-0.1,1.6-0.1,2.4,0c0.1,0,0.2,0,0.3,0.1
	c0.2,0.1,0.4,0.3,0.5,0.5c0,0.1,0,0.1,0,0.2l0,0.3c0,0.3,0.1,0.6,0.1,0.9c0.3,0.1,0.6,0.2,0.9,0.4c0.3-0.2,0.6-0.5,1-0.7
	c0,0,0.1-0.1,0.1-0.1c0.3-0.2,0.7-0.2,0.9,0.1c0.6,0.5,1.2,1.1,1.7,1.8c0.2,0.3,0.2,0.7,0,1c0,0,0,0-0.1,0.1l-0.2,0.3
	c-0.2,0.2-0.3,0.4-0.5,0.6c0.1,0.3,0.2,0.6,0.3,0.9c0.4,0.1,0.8,0.1,1.2,0.2h0c0.4,0.1,0.8,0.4,0.8,0.9c0,0.1,0,0.2,0,0.3
	c0,0.2,0,0.4,0,0.7c0,0.4,0,0.8-0.1,1.3c0,0.2-0.1,0.4-0.2,0.5c-0.1,0.1-0.3,0.3-0.5,0.3l-0.4,0.1c-0.3,0-0.5,0.1-0.8,0.1
	c-0.1,0.3-0.2,0.5-0.4,0.9c0.1,0.2,0.3,0.4,0.4,0.6l0.3,0.5c0.2,0.3,0.2,0.7,0,1c0,0.1-0.1,0.1-0.2,0.2c0,0,0,0-0.1,0.1v0
	c0,0,0,0-0.1,0.1c0,0-0.1,0.1-0.1,0.1l0,0c-0.2,0.2-0.4,0.4-0.6,0.6c0,0,0,0-0.1,0.1l0,0c-0.2,0.2-0.4,0.4-0.7,0.6
	c-0.2,0.1-0.3,0.2-0.5,0.2c-0.2,0-0.4-0.1-0.5-0.2c-0.2-0.1-0.3-0.3-0.5-0.4c-0.1-0.1-0.3-0.2-0.4-0.3c-0.3,0.1-0.6,0.2-0.9,0.3
	c0,0.2,0,0.3-0.1,0.5L31,44.9c0,0.3-0.2,0.5-0.4,0.6c-0.1,0-0.1,0.1-0.2,0.1c0,0-0.1,0-0.2,0c-0.1,0-0.1,0-0.2,0c0,0,0,0-0.1,0h0
	c0,0-0.1,0-0.1,0c0,0-0.1,0-0.1,0h0C29.5,45.6,29.3,45.6,29.1,45.6 M28.7,44.6C28.7,44.6,28.7,44.6,28.7,44.6 M28.6,44
	c0.3,0,0.5,0,0.8,0l0-0.1c0-0.2,0.1-0.4,0.1-0.6c0.1-0.4,0.3-0.8,0.7-1c0.1,0,0.2-0.1,0.3-0.1c0.3-0.1,0.5-0.2,0.8-0.3
	c0.5-0.3,1.1-0.2,1.6,0.2c0.2,0.1,0.3,0.2,0.5,0.4c0,0,0,0,0.1,0c0,0,0.1-0.1,0.1-0.1l0,0c0,0,0,0,0.1-0.1c0.1-0.1,0.3-0.3,0.4-0.4
	c-0.1-0.2-0.3-0.4-0.4-0.5c-0.3-0.5-0.4-1.1-0.1-1.6c0.1-0.3,0.3-0.5,0.3-0.8c0.2-0.4,0.5-0.8,0.9-0.9c0,0,0,0,0,0
	c0.1,0,0.2-0.1,0.3-0.1c0.2,0,0.5-0.1,0.7-0.1c0-0.2,0-0.3,0-0.5c0-0.1,0-0.2,0-0.3c-0.2,0-0.5-0.1-0.7-0.1c-0.6-0.1-1-0.4-1.2-1
	c-0.1-0.3-0.2-0.6-0.3-0.9c-0.2-0.5-0.2-1.1,0.2-1.5c0.1-0.2,0.3-0.4,0.4-0.6c-0.2-0.2-0.4-0.4-0.5-0.6c-0.2,0.2-0.4,0.3-0.6,0.4
	c-0.1,0.1-0.2,0.1-0.3,0.2c0,0,0,0,0,0c-0.4,0.1-0.8,0.1-1.2-0.1c-0.3-0.1-0.5-0.3-0.8-0.4c-0.5-0.2-0.9-0.7-1-1.3
	c0-0.2,0-0.4-0.1-0.7c-0.3,0-0.5,0-0.8,0v0.1c0,0.2-0.1,0.4-0.1,0.7c-0.1,0.4-0.2,0.7-0.5,0.9c0,0,0,0-0.1,0.1l-0.1,0.1
	c0,0,0,0-0.1,0c-0.1,0-0.1,0.1-0.2,0.1c-0.3,0.1-0.6,0.2-0.9,0.3c-0.1,0.1-0.2,0.1-0.3,0.1h0c-0.4,0.1-0.9,0-1.3-0.3
	c-0.2-0.1-0.4-0.3-0.5-0.4c-0.2,0.2-0.4,0.4-0.6,0.5l0.1,0.2c0.1,0.1,0.2,0.3,0.3,0.4c0.1,0.2,0.2,0.4,0.3,0.7c0,0.1,0,0.2,0,0.3
	l-0.1,0.4c0,0.1,0,0.1-0.1,0.2c-0.1,0.3-0.3,0.6-0.4,0.9c-0.1,0.3-0.3,0.5-0.5,0.7c0,0,0,0,0,0c0,0,0,0-0.1,0
	c-0.1,0-0.2,0.1-0.2,0.1h0c-0.1,0-0.2,0.1-0.4,0.1l-0.4,0c-0.1,0-0.2,0-0.3,0c0,0.3,0,0.5,0,0.8l0.2,0c0.2,0,0.3,0,0.5,0.1
	c0.6,0.1,1,0.5,1.2,1c0.1,0.3,0.2,0.6,0.3,0.9c0.2,0.5,0.2,1.1-0.2,1.6l-0.2,0.2c-0.1,0.1-0.2,0.2-0.2,0.3c0.2,0.2,0.4,0.4,0.5,0.6
	l0.6-0.4c0.1-0.1,0.2-0.1,0.3-0.2h0c0.4-0.1,0.8-0.1,1.2,0.1c0.3,0.1,0.6,0.3,0.9,0.4c0.5,0.2,0.9,0.6,0.9,1.2
	C28.6,43.5,28.6,43.7,28.6,44 M28.1,43.9L28.1,43.9 M23.7,42.1L23.7,42.1 M23.7,41.2L23.7,41.2 M36.5,37.1L36.5,37.1 M35.9,36.4
	L35.9,36.4 M21.4,35.3C21.3,35.3,21.3,35.3,21.4,35.3C21.3,35.3,21.3,35.3,21.4,35.3 M22.9,35.2L22.9,35.2 M32.2,31.5L32.2,31.5"/>
<path fill="#FC6D26" d="M49.2,51.5c-0.4-0.2-0.8-0.4-1.2-0.6c-0.2-0.1-0.3-0.3-0.3-0.5c0,0,0-0.1,0-0.1c0-0.3,0-0.7,0-1
	c0,0,0-0.1,0-0.1l0-0.1c0-0.2,0.1-0.3,0.3-0.4c0.3-0.2,0.5-0.3,0.8-0.5c0.1-0.1,0.2-0.1,0.4-0.2c-0.2-0.7-0.5-1.4-0.9-2.1
	c0,0,0,0,0,0v0c-0.4,0.1-0.9,0.2-1.3,0.4c-0.3,0.1-0.5,0-0.8-0.2c-0.2-0.2-0.5-0.5-0.8-0.7c-0.2-0.1-0.2-0.3-0.2-0.5
	c0-0.1,0-0.1,0-0.2c0.1-0.4,0.2-0.9,0.3-1.3c0,0,0,0,0-0.1s0,0,0,0c-0.7-0.4-1.4-0.6-2.1-0.8c0,0,0,0,0,0.1
	c-0.2,0.4-0.4,0.8-0.6,1.2c-0.1,0.2-0.3,0.4-0.6,0.4c-0.4,0-0.7,0-1.1,0c-0.3,0-0.5-0.1-0.6-0.3c-0.2-0.4-0.5-0.8-0.7-1.2
	c0,0-0.1-0.1-0.1,0c-0.3,0.1-0.6,0.2-0.9,0.3c-0.4,0.1-0.7,0.3-1.1,0.5c0,0,0,0,0,0.1c0,0,0,0,0,0c0,0,0,0,0,0.1
	c0.1,0.4,0.2,0.9,0.4,1.3c0,0.1,0,0.1,0,0.1c0,0.2-0.1,0.4-0.2,0.5c-0.2,0.2-0.5,0.5-0.7,0.7c-0.2,0.2-0.4,0.3-0.7,0.2
	c-0.4-0.1-0.8-0.2-1.2-0.3c-0.1,0-0.1,0-0.2,0c-0.1,0.1-0.1,0.2-0.2,0.3c0,0,0,0,0,0s0,0,0,0.1c-0.3,0.5-0.5,1.1-0.6,1.7
	c0,0,0,0,0,0.1c0.4,0.2,0.8,0.4,1.2,0.6c0.3,0.1,0.4,0.4,0.4,0.7c0,0.3,0,0.7,0,1c0,0,0,0.1,0,0.1c0,0.2-0.1,0.4-0.3,0.5
	c-0.2,0.2-0.5,0.3-0.8,0.4c-0.2,0.1-0.3,0.2-0.5,0.3c0,0,0,0,0,0v0c0,0.1,0.1,0.2,0.1,0.3c0,0,0,0,0,0.1c0,0,0,0,0,0.1
	c0.2,0.6,0.4,1.1,0.8,1.6c0,0,0,0,0.1,0c0.4-0.1,0.9-0.3,1.3-0.4c0.2-0.1,0.5,0,0.7,0.2c0.3,0.3,0.5,0.5,0.8,0.8
	c0.1,0.1,0.2,0.3,0.2,0.4c0,0.1,0,0.1,0,0.2c-0.1,0.3-0.2,0.7-0.2,1c0,0.1-0.1,0.2-0.1,0.4c0,0,0,0,0,0c0,0,0,0,0.1,0.1c0,0,0,0,0,0
	c0.4,0.2,0.9,0.4,1.4,0.5c0.2,0.1,0.4,0.1,0.6,0.2c0,0,0.1,0,0.1,0c0.2-0.4,0.4-0.8,0.7-1.2c0.1-0.2,0.3-0.4,0.6-0.4
	c0.3,0,0.7,0,1,0c0.3,0,0.5,0.1,0.7,0.3c0.1,0.2,0.2,0.4,0.4,0.6c0.1,0.2,0.2,0.4,0.4,0.6c0.7-0.2,1.4-0.5,2.1-0.9c0,0,0,0,0,0v0
	c-0.1-0.4-0.3-0.9-0.4-1.3c0-0.1,0-0.1,0-0.2c0-0.2,0.1-0.3,0.2-0.5c0.3-0.3,0.5-0.5,0.8-0.8l0.3-0.2c0.1,0,0.2,0,0.3,0
	c0.2,0.1,0.4,0.1,0.7,0.2c0.2,0.1,0.4,0.1,0.7,0.2C48.7,52.8,49,52.1,49.2,51.5C49.3,51.5,49.2,51.5,49.2,51.5"/>
<path fill="#251B3F" d="M40.1,58.2c-0.1,0-0.2,0-0.3,0l-0.1,0c-0.1,0-0.3-0.1-0.4-0.1c-0.5-0.2-1-0.4-1.5-0.6c0,0,0,0-0.1,0
	c-0.1,0-0.2-0.1-0.4-0.3c-0.1-0.2-0.2-0.4-0.1-0.7l0.3-1.3c-0.2-0.2-0.5-0.4-0.7-0.7c-0.3,0.1-0.6,0.2-0.9,0.2l-0.4,0.1
	c-0.4,0.1-0.8,0-1-0.4c-0.3-0.5-0.6-1.1-0.8-1.8c0,0,0-0.1,0-0.1c0,0,0,0,0-0.1c0,0,0-0.1,0-0.1c0-0.1-0.1-0.1-0.1-0.2v0
	c0,0,0-0.1,0-0.1c0,0,0-0.1,0-0.1c0-0.3,0.1-0.5,0.4-0.7l0.7-0.4c0.1-0.1,0.3-0.2,0.4-0.3c0-0.3,0-0.6,0-0.9
	c-0.2-0.1-0.3-0.2-0.5-0.3c-0.2-0.1-0.4-0.2-0.6-0.3c-0.2-0.1-0.4-0.3-0.4-0.5c0-0.1-0.1-0.3,0-0.4c0.1-0.6,0.4-1.2,0.7-1.8
	c0,0,0-0.1,0-0.1c0,0,0,0,0-0.1c0,0,0-0.1,0-0.1c0-0.1,0.1-0.2,0.1-0.3c0.2-0.3,0.5-0.5,0.9-0.4l0.6,0.1c0.2,0.1,0.4,0.1,0.7,0.2
	c0.2-0.3,0.4-0.5,0.7-0.7c-0.1-0.3-0.2-0.5-0.2-0.8l-0.1-0.4c-0.1-0.2,0-0.4,0.1-0.6c0.1-0.2,0.2-0.3,0.4-0.4
	c0.4-0.2,0.8-0.4,1.2-0.6c0.2-0.1,0.4-0.2,0.6-0.2c0.1,0,0.2-0.1,0.3-0.1c0.4-0.2,0.9,0,1.1,0.4l0,0c0.2,0.3,0.4,0.7,0.7,1.1
	c0.3,0,0.7,0,1,0c0.1-0.3,0.3-0.5,0.4-0.8l0.2-0.3c0,0,0,0,0-0.1c0.2-0.3,0.5-0.5,0.9-0.4c0.8,0.2,1.6,0.5,2.3,0.9
	c0.3,0.2,0.5,0.5,0.4,0.8c0,0.1,0,0.1,0,0.2l0,0.1c-0.1,0.4-0.2,0.8-0.3,1.1c0.2,0.2,0.5,0.4,0.7,0.7c0.3-0.1,0.6-0.2,0.9-0.3
	l0.3-0.1c0.3-0.1,0.6,0,0.8,0.2c0,0,0.1,0.1,0.1,0.1c0,0,0.1,0.1,0.1,0.1c0.4,0.7,0.8,1.5,1,2.3c0.1,0.3,0,0.7-0.3,0.9L49,48.9
	c-0.2,0.1-0.3,0.2-0.5,0.3c0,0.3,0,0.6,0,1c0.3,0.1,0.5,0.3,0.8,0.4l0.3,0.2l0,0l0.1,0c0.3,0.2,0.5,0.5,0.4,0.9
	c-0.2,0.8-0.5,1.6-0.9,2.3c-0.2,0.3-0.5,0.5-0.9,0.4l-0.9-0.2c-0.1,0-0.2-0.1-0.4-0.1l0,0c-0.2,0.2-0.4,0.5-0.7,0.7l0.1,0.3
	c0.1,0.3,0.2,0.6,0.3,0.9c0,0,0,0.1,0,0.2c0.1,0.3-0.1,0.7-0.4,0.9c-0.7,0.4-1.5,0.8-2.3,1c-0.3,0.1-0.7,0-0.9-0.3L42.6,57
	c-0.1-0.1-0.1-0.2-0.2-0.4c-0.3,0-0.6,0-1,0l-0.1,0.3c-0.2,0.3-0.3,0.6-0.5,0.9C40.6,58,40.4,58.2,40.1,58.2 M40.2,56.6
	C40.2,56.6,40.2,56.6,40.2,56.6 M38.9,56.1c0.3,0.1,0.5,0.2,0.8,0.3c0.1-0.1,0.1-0.2,0.2-0.3l0.2-0.3c0.3-0.5,0.8-0.8,1.4-0.8
	c0.3,0,0.7,0,0.9,0c0.6,0,1.1,0.2,1.4,0.7c0.1,0.1,0.2,0.3,0.3,0.4l0.1,0.2c0.3-0.1,0.5-0.2,0.8-0.3c0-0.1-0.1-0.2-0.1-0.4l-0.1-0.3
	c0-0.1-0.1-0.2-0.1-0.4c0,0,0,0,0,0c0-0.4,0.1-0.8,0.4-1.1c0.2-0.2,0.5-0.5,0.7-0.8c0,0,0.1-0.1,0.1-0.1l0.3-0.2
	c0.1-0.1,0.2-0.1,0.3-0.1c0.2-0.1,0.5-0.1,0.7,0c0.2,0,0.3,0.1,0.5,0.1l0.2,0.1c0.1-0.3,0.2-0.5,0.3-0.8c-0.2-0.1-0.4-0.2-0.7-0.3
	c-0.4-0.2-0.7-0.6-0.8-1.1l0.8-0.1l-0.8,0.1c0,0,0-0.1,0-0.2c0-0.3,0-0.6,0-0.9c0-0.1,0-0.2,0-0.2c0,0,0-0.1,0-0.1l0-0.1
	c0,0,0,0,0-0.1c0.1-0.4,0.3-0.7,0.7-0.9c0.2-0.1,0.4-0.2,0.6-0.3l0.1,0c-0.1-0.3-0.2-0.5-0.4-0.8c-0.2,0.1-0.4,0.1-0.7,0.2
	c-0.6,0.2-1.2,0-1.6-0.4c-0.2-0.2-0.4-0.4-0.7-0.6c-0.3-0.3-0.5-0.6-0.5-1.1c0,0,0,0,0,0c0-0.1,0-0.2,0-0.3c0.1-0.3,0.1-0.5,0.2-0.8
	c-0.3-0.1-0.5-0.2-0.8-0.3c-0.1,0.2-0.2,0.4-0.4,0.7c-0.3,0.5-0.8,0.8-1.3,0.8c-0.3,0-0.7,0-1,0c-0.6,0-1.1-0.2-1.4-0.7
	c-0.1-0.2-0.3-0.4-0.4-0.7c-0.1,0-0.2,0.1-0.3,0.1c-0.1,0.1-0.3,0.1-0.4,0.2c0.1,0.2,0.1,0.5,0.2,0.8c0,0.1,0,0.2,0.1,0.3
	c0,0,0,0,0,0.1c0,0.4-0.2,0.9-0.5,1.2c-0.2,0.2-0.4,0.4-0.6,0.6c-0.4,0.4-0.9,0.6-1.5,0.5c-0.2-0.1-0.5-0.1-0.7-0.2
	c-0.1,0.3-0.2,0.5-0.3,0.8c0,0,0,0,0.1,0c0.2,0.1,0.4,0.2,0.5,0.3c0.5,0.3,0.8,0.8,0.8,1.4c0,0.3,0,0.6,0,0.9c0,0.1,0,0.2,0,0.3
	c0,0,0,0,0,0c0,0.4-0.3,0.8-0.7,1.1c-0.2,0.1-0.4,0.2-0.5,0.3l-0.1,0.1c0.1,0.3,0.2,0.5,0.3,0.8c0.2-0.1,0.5-0.1,0.7-0.2
	c0.5-0.2,1.1,0,1.5,0.4c0.2,0.2,0.5,0.5,0.8,0.7c0.3,0.3,0.5,0.6,0.5,1v0c0,0.1,0,0.3,0,0.4L38.9,56.1 M35.9,53.5L35.9,53.5
	 M35,53.2L35,53.2 M35,48.2L35,48.2 M39,42.9L39,42.9"/>
<circle fill="#FCA326" cx="29.2" cy="37.3" r="1.9"/>
<path fill="#251B3F" d="M29.2,40C29.2,40,29.1,40,29.2,40c-0.8,0-1.4-0.3-2-0.8c-1-1.1-1-2.8,0.1-3.8c0.5-0.5,1.2-0.8,1.9-0.8
	c0.7,0,1.4,0.3,1.9,0.8c1,1.1,1,2.8-0.1,3.8C30.5,39.7,29.9,40,29.2,40 M29.2,36.2c-0.3,0-0.5,0.1-0.7,0.3c-0.4,0.4-0.4,1.1,0,1.5
	c0.2,0.2,0.5,0.3,0.8,0.3c0.3,0,0.5-0.1,0.8-0.3c0.4-0.4,0.4-1.1,0-1.5C29.7,36.3,29.5,36.2,29.2,36.2
	C29.2,36.2,29.2,36.2,29.2,36.2"/>
<circle fill="#FCA326" cx="41.7" cy="49.8" r="1.9"/>
<g>
	<path fill="#251B3F" d="M41.7,52.5c-0.3,0-0.7-0.1-1-0.2c-0.7-0.3-1.2-0.8-1.5-1.4c-0.3-0.7-0.3-1.4-0.1-2.1
		c0.3-0.7,0.8-1.2,1.4-1.5c1.4-0.6,3,0,3.6,1.4c0.3,0.7,0.3,1.4,0.1,2.1c-0.3,0.7-0.8,1.2-1.4,1.5C42.5,52.5,42.1,52.5,41.7,52.5
		 M41.7,48.8c-0.1,0-0.3,0-0.4,0.1c-0.3,0.1-0.5,0.3-0.6,0.6c-0.1,0.3-0.1,0.5,0,0.8c0.1,0.3,0.3,0.5,0.6,0.6c0.3,0.1,0.5,0.1,0.8,0
		c0.3-0.1,0.5-0.3,0.6-0.6c0.1-0.3,0.1-0.5,0-0.8c-0.1-0.3-0.3-0.5-0.6-0.6C42,48.8,41.9,48.8,41.7,48.8"/>
	<path fill="#251B3F" d="M60.9,30.8c-2.2,0-4.3,0.4-6.3,1.2c-0.6-5.5-3-10-7.1-13.2c-3.5-2.7-8.2-4.3-12.9-4.3s-9.2,1.6-12.7,4.6
		c-3.4,2.8-5.6,6.7-6.4,10.9C7.8,30.2,1.7,36.5,1.7,44.2c0,0.4,0.4,0.8,0.8,0.8s0.8-0.4,0.8-0.8c0-7,5.7-12.6,12.6-12.6
		c0.2,0,0.3,0,0.5-0.1l0.2-0.1c0.2-0.1,0.3-0.3,0.3-0.5c0.6-4,2.7-7.7,5.9-10.4c3.2-2.7,7.4-4.2,11.6-4.2c8.3,0,17.5,5.2,18.4,16.5
		c-1.8,0.9-3.4,2.1-4.7,3.6c-0.3,0.3-0.3,0.9,0,1.2c0.3,0.3,0.9,0.3,1.2,0c2.9-3.2,7.1-5,11.4-5c8.5,0,15.5,6.9,15.5,15.5
		s-6.9,15.5-15.5,15.5H3c-0.4,0-0.8,0.4-0.8,0.8C2.2,64.6,2.5,65,3,65h57.9C70.3,65,78,57.3,78,47.9S70.3,30.8,60.9,30.8"/>
</g>
</svg>
